{
  "version": 1,
  "notes": "",
  "documentation": "\"This file is a QMK Configurator export. You can import this at <https://config.qmk.fm>. It can also be used directly with QMK's source code.\n\nTo setup your QMK environment check out the tutorial: <https://docs.qmk.fm/#/newbs>\n\nYou can convert this file to a keymap.c using this command: `qmk json2c {keymap}`\n\nYou can compile this keymap using this command: `qmk compile {keymap}`\"\n",
  "keyboard": "planck/rev6",
  "keymap": "joris_v8",
  "layout": "LAYOUT_planck_1x2uC",
  "layers": [
    [
      "KC_TAB",
      "KC_Q",
      "KC_W",
      "KC_E",
      "KC_R",
      "KC_T",
      "KC_Y",
      "KC_U",
      "KC_I",
      "KC_O",
      "KC_P",
      "KC_BSPC",
      "KC_ESC",
      "KC_A",
      "KC_S",
      "KC_D",
      "KC_F",
      "KC_G",
      "KC_H",
      "KC_J",
      "KC_K",
      "KC_L",
      "KC_SCLN",
      "KC_ENT",
      "KC_LSFT",
      "KC_Z",
      "KC_X",
      "KC_C",
      "KC_V",
      "KC_B",
      "KC_N",
      "KC_M",
      "KC_COMM",
      "KC_DOT",
      "KC_SLSH",
      "KC_RSFT",
      "KC_LCTL",
      "MO(3)",
      "KC_LGUI",
      "KC_LALT",
      "MO(1)",
      "KC_SPC",
      "MO(2)",
      "KC_LEFT",
      "KC_DOWN",
      "KC_UP",
      "KC_RGHT"
    ],
    [
      "KC_NO",
      "KC_1",
      "KC_2",
      "KC_3",
      "KC_4",
      "KC_5",
      "KC_6",
      "KC_7",
      "KC_8",
      "KC_9",
      "KC_0",
      "KC_NO",
      "KC_NO",
      "KC_NO",
      "KC_NO",
      "KC_NO",
      "KC_NO",
      "KC_NO",
      "KC_NO",
      "KC_4",
      "KC_5",
      "KC_6",
      "KC_NO",
      "KC_NO",
      "KC_NO",
      "KC_NO",
      "KC_NO",
      "KC_NO",
      "KC_NO",
      "KC_NO",
      "KC_NO",
      "KC_1",
      "KC_2",
      "KC_3",
      "KC_NO",
      "KC_NO",
      "KC_NO",
      "KC_NO",
      "KC_NO",
      "KC_NO",
      "KC_TRNS",
      "KC_NO",
      "KC_NO",
      "KC_0",
      "KC_NO",
      "KC_NO",
      "KC_NO"
    ],
    [
      "KC_GRV",
      "KC_EXLM",
      "KC_AT",
      "KC_HASH",
      "KC_DLR",
      "KC_PERC",
      "KC_CIRC",
      "KC_AMPR",
      "KC_ASTR",
      "KC_PMNS",
      "KC_PEQL",
      "KC_BSPC",
      "KC_TILD",
      "KC_NO",
      "KC_NO",
      "KC_LCBR",
      "KC_LBRC",
      "KC_LPRN",
      "KC_RPRN",
      "KC_RBRC",
      "KC_RCBR",
      "KC_UNDS",
      "KC_PLUS",
      "KC_ENT",
      "KC_NO",
      "KC_NO",
      "KC_NO",
      "KC_NO",
      "KC_QUOT",
      "KC_SLSH",
      "KC_BSLS",
      "KC_DQUO",
      "KC_NO",
      "KC_NO",
      "KC_PIPE",
      "KC_NO",
      "KC_NO",
      "KC_NO",
      "KC_NO",
      "KC_NO",
      "KC_NO",
      "KC_SPC",
      "KC_TRNS",
      "KC_NO",
      "KC_NO",
      "KC_NO",
      "KC_NO"
    ],
    [
      "KC_NO",
      "LGUI(KC_1)",
      "LGUI(KC_2)",
      "LGUI(KC_3)",
      "LGUI(KC_4)",
      "LGUI(KC_5)",
      "LGUI(KC_6)",
      "SGUI(KC_H)",
      "SGUI(KC_J)",
      "SGUI(KC_K)",
      "SGUI(KC_L)",
      "KC_NO",
      "KC_NO",
      "SGUI(KC_1)",
      "SGUI(KC_2)",
      "SGUI(KC_3)",
      "SGUI(KC_4)",
      "SGUI(KC_5)",
      "SGUI(KC_6)",
      "LGUI(KC_H)",
      "LGUI(KC_J)",
      "LGUI(KC_K)",
      "LGUI(KC_L)",
      "KC_NO",
      "KC_F1",
      "KC_F2",
      "KC_F3",
      "KC_F4",
      "KC_F5",
      "KC_F6",
      "KC_F7",
      "KC_F8",
      "KC_F9",
      "KC_F10",
      "KC_F11",
      "KC_F12",
      "RESET",
      "KC_TRNS",
      "KC_NO",
      "KC_NO",
      "RGB_HUI",
      "RGB_TOG",
      "RGB_HUD",
      "KC_NO",
      "KC_LGUI",
      "KC_NO",
      "KC_NO"
    ]
  ],
  "author": ""
}